<svg width="1067" height="1164" viewBox="0 0 1067 1164" fill="none" xmlns="http://www.w3.org/2000/svg">
<path d="M436.873 42.2876C472.683 19.1208 529.897 7.47231 595.753 3.10259C661.566 -1.26424 735.839 1.64619 805.639 7.47279C875.434 13.299 940.73 22.0387 988.579 29.3222C1012.5 32.9639 1032.06 36.2413 1045.64 38.6081C1052.43 39.7915 1057.72 40.7473 1061.32 41.407C1063.12 41.7369 1064.49 41.9928 1065.42 42.1662C1065.64 42.2076 1065.83 42.2443 1066 42.2762V1011.15C1065.83 1011.24 1065.62 1011.34 1065.36 1011.47C1064.58 1011.86 1063.41 1012.45 1061.88 1013.2C1058.81 1014.72 1054.27 1016.93 1048.4 1019.72C1036.67 1025.31 1019.62 1033.21 998.364 1042.46C955.846 1060.97 896.497 1084.88 829.17 1106.53C694.454 1149.84 528.029 1183.97 400.565 1147.72C394.392 1145.97 388.228 1144.22 382.076 1142.48C296.862 1118.34 214.182 1094.92 147.41 1057.12C75.8793 1016.62 22.6825 959.656 4.30536 867.637C-1.77643 837.185 0.778918 812.339 9.96172 791.672C19.1473 771 35.0067 754.414 55.6961 740.56C97.1243 712.818 157.693 696.168 222.113 679.605C226.678 678.431 231.261 677.258 235.859 676.081C296.059 660.674 358.566 644.677 410.805 619.244C467.06 591.856 511.564 553.453 528.481 492.913C540.665 449.31 531.926 405.044 514.343 361.811C499.19 324.553 477.423 287.958 456.709 253.133C453.394 247.561 450.107 242.035 446.878 236.558C423.427 196.782 403.093 159.693 397.556 126.768C394.793 110.336 395.727 94.9963 401.765 80.9002C407.802 66.8059 418.983 53.8616 436.873 42.2876Z" stroke="#DAF8FF" stroke-opacity="0.75" stroke-width="2"/>
</svg>
