<svg width="556" height="481" viewBox="0 0 556 481" fill="none" xmlns="http://www.w3.org/2000/svg">
<path d="M556 49.0001C556 49.0001 361.908 -35.4637 283 18C204.092 71.4637 105.321 11.5257 40.0001 49.0001C-25.3207 86.4744 47.0572 284.537 11.0001 339C-16.7366 380.895 15.3595 442.361 31.6494 468.498C36.6683 476.551 45.5934 481 55.0822 481H526C542.569 481 556 467.569 556 451V49.0001Z" fill="#9E9035"/>
</svg>
